data/Session1-EMLabs/TEK0006.CSV

Record Length,2.500000e+03,,  -0.000000027000,   0.00000,
Sample Interval,1.000000e-10,,  -0.000000026900,   0.00000,
Trigger Point,2.700000000000e+02,,  -0.000000026800,   0.00000,
,,,  -0.000000026700,   0.00000,
,,,  -0.000000026600,   0.00000,
,,,  -0.000000026500,   0.00000,
Source,CH1,,  -0.000000026400,  -0.04000,
Vertical Units,V,,  -0.000000026300,  -0.04000,
Vertical Scale,1.000000e+00,,  -0.000000026200,  -0.04000,
Vertical Offset,-2.960000e+00,,  -0.000000026100,  -0.04000,
Horizontal Units,s,,  -0.000000026000,  -0.04000,
Horizontal Scale,2.500000e-08,,  -0.000000025900,  -0.04000,
Pt Fmt,Y,,  -0.000000025800,  -0.04000,
Yzero,0.000000e+00,,  -0.000000025700,  -0.04000,
Probe Atten,1.000000e+00,,  -0.000000025600,  -0.04000,
Model Number,TDS2022C,,  -0.000000025500,   0.00000,
Serial Number,C050423,,  -0.000000025400,   0.00000,
Firmware Version,FV:v24.26,,  -0.000000025300,   0.00000,
,,,-00.000000025200,   0.00000,
,,,-00.000000025100,   0.00000,
,,,-00.000000025000,   0.00000,
,,,-00.000000024900,  -0.04000,
,,,-00.000000024800,  -0.04000,
,,,-00.000000024700,  -0.04000,
,,,-00.000000024600,  -0.04000,
,,,-00.000000024500,  -0.04000,
,,,-00.000000024400,  -0.04000,
,,,-00.000000024300,  -0.04000,
,,,-00.000000024200,  -0.04000,
,,,-00.000000024100,  -0.04000,
,,,-00.000000024000,  -0.04000,
,,,-00.000000023900,  -0.04000,
,,,-00.000000023800,  -0.04000,
,,,-00.000000023700,  -0.04000,
,,,-00.000000023600,  -0.04000,
,,,-00.000000023500,  -0.04000,
,,,-00.000000023400,  -0.04000,
,,,-00.000000023300,  -0.04000,
,,,-00.000000023200,  -0.04000,
,,,-00.000000023100,  -0.04000,
,,,-00.000000023000,   0.00000,
,,,-00.000000022900,   0.00000,
,,,-00.000000022800,   0.00000,
,,,-00.000000022700,   0.00000,
,,,-00.000000022600,   0.00000,
,,,-00.000000022500,   0.00000,
,,,-00.000000022400,  -0.04000,
,,,-00.000000022300,  -0.04000,
,,,-00.000000022200,  -0.04000,
,,,-00.000000022100,  -0.04000,
,,,-00.000000022000,  -0.04000,
,,,-00.000000021900,  -0.04000,
,,,-00.000000021800,  -0.04000,
,,,-00.000000021700,  -0.04000,
,,,-00.000000021600,  -0.04000,
,,,-00.000000021500,   0.00000,
,,,-00.000000021400,  -0.04000,
,,,-00.000000021300,  -0.04000,
,,,-00.000000021200,  -0.04000,
,,,-00.000000021100,  -0.04000,
,,,-00.000000021000,  -0.04000,
,,,-00.000000020900,  -0.04000,
,,,-00.000000020800,  -0.04000,
,,,-00.000000020700,  -0.04000,
,,,-00.000000020600,  -0.04000,
,,,-00.000000020500,   0.00000,
,,,-00.000000020400,   0.00000,
,,,-00.000000020300,   0.00000,
,,,-00.000000020200,   0.00000,
,,,-00.000000020100,   0.00000,
,,,-00.000000020000,   0.00000,
,,,-00.000000019900,  -0.04000,
,,,-00.000000019800,  -0.04000,
,,,-00.000000019700,  -0.04000,
,,,-00.000000019600,  -0.04000,
,,,-00.000000019500,  -0.04000,
,,,-00.000000019400,  -0.04000,
,,,-00.000000019300,  -0.04000,
,,,-00.000000019200,  -0.04000,
,,,-00.000000019100,  -0.04000,
,,,-00.000000019000,   0.00000,
,,,-00.000000018900,   0.00000,
,,,-00.000000018800,   0.00000,
,,,-00.000000018700,   0.00000,
,,,-00.000000018600,   0.00000,
,,,-00.000000018500,   0.00000,
,,,-00.000000018400,  -0.04000,
,,,-00.000000018300,  -0.04000,
,,,-00.000000018200,  -0.04000,
,,,-00.000000018100,  -0.04000,
,,,-00.000000018000,  -0.04000,
,,,-00.000000017900,  -0.04000,
,,,-00.000000017800,  -0.04000,
,,,-00.000000017700,  -0.04000,
,,,-00.000000017600,  -0.04000,
,,,-00.000000017500,  -0.04000,
,,,-00.000000017400,  -0.04000,
,,,-00.000000017300,  -0.04000,
,,,-00.000000017200,  -0.04000,
,,,-00.000000017100,  -0.04000,
,,,-00.000000017000,  -0.04000,
,,,-00.000000016900,  -0.08000,
,,,-00.000000016800,  -0.08000,
,,,-00.000000016700,  -0.08000,
,,,-00.000000016600,  -0.08000,
,,,-00.000000016500,  -0.08000,
,,,-00.000000016400,  -0.08000,
,,,-00.000000016300,  -0.08000,
,,,-00.000000016200,  -0.08000,
,,,-00.000000016100,  -0.08000,
,,,-00.000000016000,  -0.04000,
,,,-00.000000015900,  -0.04000,
,,,-00.000000015800,  -0.04000,
,,,-00.000000015700,  -0.04000,
,,,-00.000000015600,  -0.04000,
,,,-00.000000015500,  -0.04000,
,,,-00.000000015400,  -0.04000,
,,,-00.000000015300,  -0.04000,
,,,-00.000000015200,  -0.04000,
,,,-00.000000015100,  -0.04000,
,,,-00.000000015000,   0.00000,
,,,-00.000000014900,   0.00000,
,,,-00.000000014800,   0.00000,
,,,-00.000000014700,   0.00000,
,,,-00.000000014600,   0.04000,
,,,-00.000000014500,   0.04000,
,,,-00.000000014400,   0.00000,
,,,-00.000000014300,   0.00000,
,,,-00.000000014200,   0.00000,
,,,-00.000000014100,   0.00000,
,,,-00.000000014000,   0.00000,
,,,-00.000000013900,   0.00000,
,,,-00.000000013800,   0.00000,
,,,-00.000000013700,   0.00000,
,,,-00.000000013600,   0.00000,
,,,-00.000000013500,   0.00000,
,,,-00.000000013400,  -0.04000,
,,,-00.000000013300,  -0.04000,
,,,-00.000000013200,  -0.04000,
,,,-00.000000013100,  -0.04000,
,,,-00.000000013000,  -0.04000,
,,,-00.000000012900,  -0.04000,
,,,-00.000000012800,  -0.04000,
,,,-00.000000012700,  -0.04000,
,,,-00.000000012600,  -0.04000,
,,,-00.000000012500,  -0.04000,
,,,-00.000000012400,  -0.04000,
,,,-00.000000012300,  -0.04000,
,,,-00.000000012200,  -0.04000,
,,,-00.000000012100,  -0.04000,
,,,-00.000000012000,  -0.04000,
,,,-00.000000011900,  -0.04000,
,,,-00.000000011800,  -0.04000,
,,,-00.000000011700,  -0.04000,
,,,-00.000000011600,  -0.04000,
,,,-00.000000011500,  -0.04000,
,,,-00.000000011400,  -0.04000,
,,,-00.000000011300,  -0.04000,
,,,-00.000000011200,  -0.04000,
,,,-00.000000011100,  -0.04000,
,,,-00.000000011000,   0.00000,
,,,-00.000000010900,   0.00000,
,,,-00.000000010800,   0.00000,
,,,-00.000000010700,   0.00000,
,,,-00.000000010600,   0.00000,
,,,-00.000000010500,   0.04000,
,,,-00.000000010400,   0.04000,
,,,-00.000000010300,   0.04000,
,,,-00.000000010200,   0.04000,
,,,-00.000000010100,   0.04000,
,,,-00.000000010000,   0.04000,
,,,-00.000000009900,   0.04000,
,,,-00.000000009800,   0.04000,
,,,-00.000000009700,   0.04000,
,,,-00.000000009600,   0.04000,
,,,-00.000000009500,   0.04000,
,,,-00.000000009400,   0.00000,
,,,-00.000000009300,   0.00000,
,,,-00.000000009200,   0.00000,
,,,-00.000000009100,   0.00000,
,,,-00.000000009000,   0.00000,
,,,-00.000000008900,  -0.04000,
,,,-00.000000008800,  -0.04000,
,,,-00.000000008700,  -0.04000,
,,,-00.000000008600,  -0.04000,
,,,-00.000000008500,  -0.04000,
,,,-00.000000008400,  -0.04000,
,,,-00.000000008300,  -0.04000,
,,,-00.000000008200,  -0.04000,
,,,-00.000000008100,  -0.04000,
,,,-00.000000008000,   0.00000,
,,,-00.000000007900,  -0.04000,
,,,-00.000000007800,  -0.04000,
,,,-00.000000007700,  -0.04000,
,,,-00.000000007600,  -0.04000,
,,,-00.000000007500,  -0.04000,
,,,-00.000000007400,  -0.04000,
,,,-00.000000007300,  -0.04000,
,,,-00.000000007200,  -0.04000,
,,,-00.000000007100,  -0.04000,
,,,-00.000000007000,  -0.04000,
,,,-00.000000006900,  -0.04000,
,,,-00.000000006800,  -0.04000,
,,,-00.000000006700,  -0.04000,
,,,-00.000000006600,  -0.04000,
,,,-00.000000006500,  -0.04000,
,,,-00.000000006400,  -0.04000,
,,,-00.000000006300,  -0.04000,
,,,-00.000000006200,  -0.04000,
,,,-00.000000006100,  -0.04000,
,,,-00.000000006000,  -0.04000,
,,,-00.000000005900,  -0.04000,
,,,-00.000000005800,  -0.04000,
,,,-00.000000005700,  -0.04000,
,,,-00.000000005600,  -0.04000,
,,,-00.000000005500,  -0.04000,
,,,-00.000000005400,  -0.04000,
,,,-00.000000005300,  -0.04000,
,,,-00.000000005200,  -0.04000,
,,,-00.000000005100,  -0.04000,
,,,-00.000000005000,  -0.04000,
,,,-00.000000004900,  -0.04000,
,,,-00.000000004800,  -0.04000,
,,,-00.000000004700,  -0.04000,
,,,-00.000000004600,  -0.04000,
,,,-00.000000004500,   0.00000,
,,,-00.000000004400,  -0.04000,
,,,-00.000000004300,  -0.04000,
,,,-00.000000004200,  -0.04000,
,,,-00.000000004100,  -0.04000,
,,,-00.000000004000,  -0.04000,
,,,-00.000000003900,  -0.04000,
,,,-00.000000003800,  -0.04000,
,,,-00.000000003700,  -0.04000,
,,,-00.000000003600,  -0.04000,
,,,-00.000000003500,  -0.04000,
,,,-00.000000003400,  -0.04000,
,,,-00.000000003300,  -0.04000,
,,,-00.000000003200,  -0.04000,
,,,-00.000000003100,  -0.04000,
,,,-00.000000003000,  -0.04000,
,,,-00.000000002900,  -0.04000,
,,,-00.000000002800,  -0.04000,
,,,-00.000000002700,  -0.04000,
,,,-00.000000002600,  -0.04000,
,,,-00.000000002500,  -0.04000,
,,,-00.000000002400,  -0.04000,
,,,-00.000000002300,  -0.04000,
,,,-00.000000002200,  -0.04000,
,,,-00.000000002100,  -0.04000,
,,,-00.000000002000,   0.00000,
,,,-00.000000001900,   0.00000,
,,,-00.000000001800,   0.00000,
,,,-00.000000001700,   0.00000,
,,,-00.000000001600,   0.04000,
,,,-00.000000001500,   0.04000,
,,,-00.000000001400,   0.00000,
,,,-00.000000001300,   0.00000,
,,,-00.000000001200,   0.00000,
,,,-00.000000001100,   0.00000,
,,,-00.000000001000,   0.00000,
,,,-00.000000000900,  -0.04000,
,,,-00.000000000800,  -0.04000,
,,,-00.000000000700,  -0.04000,
,,,-00.000000000600,  -0.04000,
,,,-00.000000000500,   0.00000,
,,,-00.000000000400,   0.00000,
,,,-00.000000000300,   0.00000,
,,,-00.000000000200,   0.04000,
,,,-00.000000000100,   0.04000,
,,,-00.000000000000,   0.08000,
,,,00.000000000100,   0.08000,
,,,00.000000000200,   0.08000,
,,,00.000000000300,   0.08000,
,,,00.000000000400,   0.08000,
,,,00.000000000500,   0.12000,
,,,00.000000000600,   0.12000,
,,,00.000000000700,   0.12000,
,,,00.000000000800,   0.12000,
,,,00.000000000900,   0.12000,
,,,00.000000001000,   0.16000,
,,,00.000000001100,   0.16000,
,,,00.000000001200,   0.20000,
,,,00.000000001300,   0.20000,
,,,00.000000001400,   0.24000,
,,,00.000000001500,   0.28000,
,,,00.000000001600,   0.28000,
,,,00.000000001700,   0.32000,
,,,00.000000001800,   0.32000,
,,,00.000000001900,   0.36000,
,,,00.000000002000,   0.40000,
,,,00.000000002100,   0.44000,
,,,00.000000002200,   0.44000,
,,,00.000000002300,   0.52000,
,,,00.000000002400,   0.56000,
,,,00.000000002500,   0.60000,
,,,00.000000002600,   0.64000,
,,,00.000000002700,   0.68000,
,,,00.000000002800,   0.72000,
,,,00.000000002900,   0.76000,
,,,00.000000003000,   0.80000,
,,,00.000000003100,   0.84000,
,,,00.000000003200,   0.88000,
,,,00.000000003300,   0.92000,
,,,00.000000003400,   0.96000,
,,,00.000000003500,   1.00000,
,,,00.000000003600,   1.04000,
,,,00.000000003700,   1.08000,
,,,00.000000003800,   1.12000,
,,,00.000000003900,   1.16000,
,,,00.000000004000,   1.24000,
,,,00.000000004100,   1.28000,
,,,00.000000004200,   1.36000,
,,,00.000000004300,   1.40000,
,,,00.000000004400,   1.48000,
,,,00.000000004500,   1.56000,
,,,00.000000004600,   1.60000,
,,,00.000000004700,   1.68000,
,,,00.000000004800,   1.72000,
,,,00.000000004900,   1.80000,
,,,00.000000005000,   1.88000,
,,,00.000000005100,   1.92000,
,,,00.000000005200,   2.00000,
,,,00.000000005300,   2.04000,
,,,00.000000005400,   2.12000,
,,,00.000000005500,   2.20000,
,,,00.000000005600,   2.24000,
,,,00.000000005700,   2.32000,
,,,00.000000005800,   2.36000,
,,,00.000000005900,   2.44000,
,,,00.000000006000,   2.52000,
,,,00.000000006100,   2.56000,
,,,00.000000006200,   2.64000,
,,,00.000000006300,   2.72000,
,,,00.000000006400,   2.80000,
,,,00.000000006500,   2.88000,
,,,00.000000006600,   2.92000,
,,,00.000000006700,   3.00000,
,,,00.000000006800,   3.08000,
,,,00.000000006900,   3.12000,
,,,00.000000007000,   3.20000,
,,,00.000000007100,   3.24000,
,,,00.000000007200,   3.28000,
,,,00.000000007300,   3.36000,
,,,00.000000007400,   3.40000,
,,,00.000000007500,   3.48000,
,,,00.000000007600,   3.52000,
,,,00.000000007700,   3.60000,
,,,00.000000007800,   3.64000,
,,,00.000000007900,   3.72000,
,,,00.000000008000,   3.80000,
,,,00.000000008100,   3.84000,
,,,00.000000008200,   3.92000,
,,,00.000000008300,   3.96000,
,,,00.000000008400,   4.00000,
,,,00.000000008500,   4.08000,
,,,00.000000008600,   4.12000,
,,,00.000000008700,   4.16000,
,,,00.000000008800,   4.20000,
,,,00.000000008900,   4.28000,
,,,00.000000009000,   4.32000,
,,,00.000000009100,   4.36000,
,,,00.000000009200,   4.40000,
,,,00.000000009300,   4.44000,
,,,00.000000009400,   4.48000,
,,,00.000000009500,   4.52000,
,,,00.000000009600,   4.56000,
,,,00.000000009700,   4.60000,
,,,00.000000009800,   4.64000,
,,,00.000000009900,   4.68000,
,,,00.000000010000,   4.72000,
,,,00.000000010100,   4.72000,
,,,00.000000010200,   4.76000,
,,,00.000000010300,   4.80000,
,,,00.000000010400,   4.84000,
,,,00.000000010500,   4.88000,
,,,00.000000010600,   4.92000,
,,,00.000000010700,   4.92000,
,,,00.000000010800,   4.96000,
,,,00.000000010900,   5.00000,
,,,00.000000011000,   5.04000,
,,,00.000000011100,   5.04000,
,,,00.000000011200,   5.08000,
,,,00.000000011300,   5.08000,
,,,00.000000011400,   5.08000,
,,,00.000000011500,   5.12000,
,,,00.000000011600,   5.12000,
,,,00.000000011700,   5.12000,
,,,00.000000011800,   5.16000,
,,,00.000000011900,   5.16000,
,,,00.000000012000,   5.20000,
,,,00.000000012100,   5.20000,
,,,00.000000012200,   5.20000,
,,,00.000000012300,   5.20000,
,,,00.000000012400,   5.20000,
,,,00.000000012500,   5.24000,
,,,00.000000012600,   5.24000,
,,,00.000000012700,   5.24000,
,,,00.000000012800,   5.24000,
,,,00.000000012900,   5.24000,
,,,00.000000013000,   5.28000,
,,,00.000000013100,   5.28000,
,,,00.000000013200,   5.28000,
,,,00.000000013300,   5.28000,
,,,00.000000013400,   5.28000,
,,,00.000000013500,   5.28000,
,,,00.000000013600,   5.24000,
,,,00.000000013700,   5.24000,
,,,00.000000013800,   5.20000,
,,,00.000000013900,   5.20000,
,,,00.000000014000,   5.20000,
,,,00.000000014100,   5.20000,
,,,00.000000014200,   5.20000,
,,,00.000000014300,   5.20000,
,,,00.000000014400,   5.20000,
,,,00.000000014500,   5.20000,
,,,00.000000014600,   5.16000,
,,,00.000000014700,   5.16000,
,,,00.000000014800,   5.16000,
,,,00.000000014900,   5.16000,
,,,00.000000015000,   5.16000,
,,,00.000000015100,   5.16000,
,,,00.000000015200,   5.16000,
,,,00.000000015300,   5.16000,
,,,00.000000015400,   5.16000,
,,,00.000000015500,   5.20000,
,,,00.000000015600,   5.16000,
,,,00.000000015700,   5.16000,
,,,00.000000015800,   5.16000,
,,,00.000000015900,   5.16000,
,,,00.000000016000,   5.16000,
,,,00.000000016100,   5.16000,
,,,00.000000016200,   5.12000,
,,,00.000000016300,   5.12000,
,,,00.000000016400,   5.16000,
,,,00.000000016500,   5.16000,
,,,00.000000016600,   5.16000,
,,,00.000000016700,   5.16000,
,,,00.000000016800,   5.16000,
,,,00.000000016900,   5.16000,
,,,00.000000017000,   5.20000,
,,,00.000000017100,   5.20000,
,,,00.000000017200,   5.20000,
,,,00.000000017300,   5.20000,
,,,00.000000017400,   5.20000,
,,,00.000000017500,   5.20000,
,,,00.000000017600,   5.20000,
,,,00.000000017700,   5.20000,
,,,00.000000017800,   5.20000,
,,,00.000000017900,   5.20000,
,,,00.000000018000,   5.20000,
,,,00.000000018100,   5.20000,
,,,00.000000018200,   5.20000,
,,,00.000000018300,   5.20000,
,,,00.000000018400,   5.20000,
,,,00.000000018500,   5.20000,
,,,00.000000018600,   5.20000,
,,,00.000000018700,   5.20000,
,,,00.000000018800,   5.20000,
,,,00.000000018900,   5.20000,
,,,00.000000019000,   5.20000,
,,,00.000000019100,   5.20000,
,,,00.000000019200,   5.20000,
,,,00.000000019300,   5.20000,
,,,00.000000019400,   5.20000,
,,,00.000000019500,   5.20000,
,,,00.000000019600,   5.20000,
,,,00.000000019700,   5.20000,
,,,00.000000019800,   5.20000,
,,,00.000000019900,   5.20000,
,,,00.000000020000,   5.20000,
,,,00.000000020100,   5.20000,
,,,00.000000020200,   5.20000,
,,,00.000000020300,   5.20000,
,,,00.000000020400,   5.20000,
,,,00.000000020500,   5.20000,
,,,00.000000020600,   5.20000,
,,,00.000000020700,   5.20000,
,,,00.000000020800,   5.20000,
,,,00.000000020900,   5.20000,
,,,00.000000021000,   5.20000,
,,,00.000000021100,   5.16000,
,,,00.000000021200,   5.16000,
,,,00.000000021300,   5.16000,
,,,00.000000021400,   5.16000,
,,,00.000000021500,   5.16000,
,,,00.000000021600,   5.12000,
,,,00.000000021700,   5.12000,
,,,00.000000021800,   5.12000,
,,,00.000000021900,   5.12000,
,,,00.000000022000,   5.16000,
,,,00.000000022100,   5.16000,
,,,00.000000022200,   5.16000,
,,,00.000000022300,   5.20000,
,,,00.000000022400,   5.20000,
,,,00.000000022500,   5.24000,
,,,00.000000022600,   5.24000,
,,,00.000000022700,   5.24000,
,,,00.000000022800,   5.24000,
,,,00.000000022900,   5.24000,
,,,00.000000023000,   5.24000,
,,,00.000000023100,   5.24000,
,,,00.000000023200,   5.24000,
,,,00.000000023300,   5.24000,
,,,00.000000023400,   5.24000,
,,,00.000000023500,   5.24000,
,,,00.000000023600,   5.24000,
,,,00.000000023700,   5.24000,
,,,00.000000023800,   5.24000,
,,,00.000000023900,   5.24000,
,,,00.000000024000,   5.24000,
,,,00.000000024100,   5.24000,
,,,00.000000024200,   5.24000,
,,,00.000000024300,   5.24000,
,,,00.000000024400,   5.24000,
,,,00.000000024500,   5.24000,
,,,00.000000024600,   5.24000,
,,,00.000000024700,   5.24000,
,,,00.000000024800,   5.24000,
,,,00.000000024900,   5.24000,
,,,00.000000025000,   5.24000,
,,,00.000000025100,   5.24000,
,,,00.000000025200,   5.24000,
,,,00.000000025300,   5.24000,
,,,00.000000025400,   5.24000,
,,,00.000000025500,   5.24000,
,,,00.000000025600,   5.24000,
,,,00.000000025700,   5.24000,
,,,00.000000025800,   5.24000,
,,,00.000000025900,   5.24000,
,,,00.000000026000,   5.24000,
,,,00.000000026100,   5.24000,
,,,00.000000026200,   5.24000,
,,,00.000000026300,   5.24000,
,,,00.000000026400,   5.24000,
,,,00.000000026500,   5.24000,
,,,00.000000026600,   5.24000,
,,,00.000000026700,   5.24000,
,,,00.000000026800,   5.24000,
,,,00.000000026900,   5.24000,
,,,00.000000027000,   5.28000,
,,,00.000000027100,   5.28000,
,,,00.000000027200,   5.28000,
,,,00.000000027300,   5.28000,
,,,00.000000027400,   5.28000,
,,,00.000000027500,   5.28000,
,,,00.000000027600,   5.28000,
,,,00.000000027700,   5.28000,
,,,00.000000027800,   5.28000,
,,,00.000000027900,   5.28000,
,,,00.000000028000,   5.28000,
,,,00.000000028100,   5.28000,
,,,00.000000028200,   5.28000,
,,,00.000000028300,   5.28000,
,,,00.000000028400,   5.28000,
,,,00.000000028500,   5.28000,
,,,00.000000028600,   5.24000,
,,,00.000000028700,   5.24000,
,,,00.000000028800,   5.24000,
,,,00.000000028900,   5.24000,
,,,00.000000029000,   5.24000,
,,,00.000000029100,   5.24000,
,,,00.000000029200,   5.24000,
,,,00.000000029300,   5.24000,
,,,00.000000029400,   5.24000,
,,,00.000000029500,   5.24000,
,,,00.000000029600,   5.20000,
,,,00.000000029700,   5.20000,
,,,00.000000029800,   5.20000,
,,,00.000000029900,   5.20000,
,,,00.000000030000,   5.20000,
,,,00.000000030100,   5.20000,
,,,00.000000030200,   5.20000,
,,,00.000000030300,   5.20000,
,,,00.000000030400,   5.20000,
,,,00.000000030500,   5.24000,
,,,00.000000030600,   5.20000,
,,,00.000000030700,   5.20000,
,,,00.000000030800,   5.20000,
,,,00.000000030900,   5.20000,
,,,00.000000031000,   5.20000,
,,,00.000000031100,   5.20000,
,,,00.000000031200,   5.20000,
,,,00.000000031300,   5.20000,
,,,00.000000031400,   5.20000,
,,,00.000000031500,   5.24000,
,,,00.000000031600,   5.24000,
,,,00.000000031700,   5.24000,
,,,00.000000031800,   5.24000,
,,,00.000000031900,   5.28000,
,,,00.000000032000,   5.28000,
,,,00.000000032100,   5.28000,
,,,00.000000032200,   5.24000,
,,,00.000000032300,   5.24000,
,,,00.000000032400,   5.24000,
,,,00.000000032500,   5.24000,
,,,00.000000032600,   5.20000,
,,,00.000000032700,   5.20000,
,,,00.000000032800,   5.20000,
,,,00.000000032900,   5.20000,
,,,00.000000033000,   5.20000,
,,,00.000000033100,   5.20000,
,,,00.000000033200,   5.20000,
,,,00.000000033300,   5.20000,
,,,00.000000033400,   5.20000,
,,,00.000000033500,   5.24000,
,,,00.000000033600,   5.24000,
,,,00.000000033700,   5.24000,
,,,00.000000033800,   5.24000,
,,,00.000000033900,   5.24000,
,,,00.000000034000,   5.24000,
,,,00.000000034100,   5.20000,
,,,00.000000034200,   5.20000,
,,,00.000000034300,   5.20000,
,,,00.000000034400,   5.20000,
,,,00.000000034500,   5.20000,
,,,00.000000034600,   5.20000,
,,,00.000000034700,   5.20000,
,,,00.000000034800,   5.24000,
,,,00.000000034900,   5.24000,
,,,00.000000035000,   5.28000,
,,,00.000000035100,   5.28000,
,,,00.000000035200,   5.28000,
,,,00.000000035300,   5.28000,
,,,00.000000035400,   5.28000,
