data/Session1-EMLabs/TEK0003.CSV

Record Length,2.500000e+03,,  -0.000000012800,   0.08000,
Sample Interval,4.000000e-11,,  -0.000000012760,   0.08000,
Trigger Point,3.200000000000e+02,,  -0.000000012720,   0.08000,
,,,  -0.000000012680,   0.08000,
,,,  -0.000000012640,   0.04000,
,,,  -0.000000012600,   0.04000,
Source,CH2,,  -0.000000012560,   0.04000,
Vertical Units,V,,  -0.000000012520,   0.04000,
Vertical Scale,1.000000e+00,,  -0.000000012480,   0.04000,
Vertical Offset,-2.960000e+00,,  -0.000000012440,   0.04000,
Horizontal Units,s,,  -0.000000012400,   0.04000,
Horizontal Scale,1.000000e-08,,  -0.000000012360,   0.04000,
Pt Fmt,Y,,  -0.000000012320,   0.04000,
Yzero,0.000000e+00,,  -0.000000012280,   0.04000,
Probe Atten,1.000000e+00,,  -0.000000012240,   0.04000,
Model Number,TDS2022C,,  -0.000000012200,   0.04000,
Serial Number,C050423,,  -0.000000012160,   0.04000,
Firmware Version,FV:v24.26,,  -0.000000012120,   0.04000,
,,,-00.000000012080,   0.04000,
,,,-00.000000012040,   0.04000,
,,,-00.000000012000,   0.04000,
,,,-00.000000011960,   0.04000,
,,,-00.000000011920,   0.04000,
,,,-00.000000011880,   0.04000,
,,,-00.000000011840,   0.04000,
,,,-00.000000011800,   0.04000,
,,,-00.000000011760,   0.08000,
,,,-00.000000011720,   0.08000,
,,,-00.000000011680,   0.08000,
,,,-00.000000011640,   0.08000,
,,,-00.000000011600,   0.04000,
,,,-00.000000011560,   0.04000,
,,,-00.000000011520,   0.04000,
,,,-00.000000011480,   0.04000,
,,,-00.000000011440,   0.04000,
,,,-00.000000011400,   0.04000,
,,,-00.000000011360,   0.04000,
,,,-00.000000011320,   0.04000,
,,,-00.000000011280,   0.04000,
,,,-00.000000011240,   0.04000,
,,,-00.000000011200,   0.04000,
,,,-00.000000011160,   0.04000,
,,,-00.000000011120,   0.04000,
,,,-00.000000011080,   0.04000,
,,,-00.000000011040,   0.04000,
,,,-00.000000011000,   0.00000,
,,,-00.000000010960,   0.00000,
,,,-00.000000010920,   0.00000,
,,,-00.000000010880,   0.00000,
,,,-00.000000010840,   0.04000,
,,,-00.000000010800,   0.04000,
,,,-00.000000010760,   0.04000,
,,,-00.000000010720,   0.04000,
,,,-00.000000010680,   0.04000,
,,,-00.000000010640,   0.04000,
,,,-00.000000010600,   0.04000,
,,,-00.000000010560,   0.04000,
,,,-00.000000010520,   0.04000,
,,,-00.000000010480,   0.04000,
,,,-00.000000010440,   0.04000,
,,,-00.000000010400,   0.04000,
,,,-00.000000010360,   0.04000,
,,,-00.000000010320,   0.04000,
,,,-00.000000010280,   0.08000,
,,,-00.000000010240,   0.08000,
,,,-00.000000010200,   0.08000,
,,,-00.000000010160,   0.08000,
,,,-00.000000010120,   0.08000,
,,,-00.000000010080,   0.04000,
,,,-00.000000010040,   0.04000,
,,,-00.000000010000,   0.04000,
,,,-00.000000009960,   0.04000,
,,,-00.000000009920,   0.04000,
,,,-00.000000009880,   0.04000,
,,,-00.000000009840,   0.04000,
,,,-00.000000009800,   0.04000,
,,,-00.000000009760,   0.04000,
,,,-00.000000009720,   0.04000,
,,,-00.000000009680,   0.04000,
,,,-00.000000009640,   0.04000,
,,,-00.000000009600,   0.04000,
,,,-00.000000009560,   0.04000,
,,,-00.000000009520,   0.00000,
,,,-00.000000009480,   0.00000,
,,,-00.000000009440,   0.00000,
,,,-00.000000009400,   0.00000,
,,,-00.000000009360,   0.04000,
,,,-00.000000009320,   0.04000,
,,,-00.000000009280,   0.04000,
,,,-00.000000009240,   0.04000,
,,,-00.000000009200,   0.04000,
,,,-00.000000009160,   0.04000,
,,,-00.000000009120,   0.04000,
,,,-00.000000009080,   0.04000,
,,,-00.000000009040,   0.04000,
,,,-00.000000009000,   0.04000,
,,,-00.000000008960,   0.04000,
,,,-00.000000008920,   0.04000,
,,,-00.000000008880,   0.04000,
,,,-00.000000008840,   0.04000,
,,,-00.000000008800,   0.04000,
,,,-00.000000008760,   0.08000,
,,,-00.000000008720,   0.08000,
,,,-00.000000008680,   0.08000,
,,,-00.000000008640,   0.08000,
,,,-00.000000008600,   0.08000,
,,,-00.000000008560,   0.08000,
,,,-00.000000008520,   0.08000,
,,,-00.000000008480,   0.08000,
,,,-00.000000008440,   0.08000,
,,,-00.000000008400,   0.08000,
,,,-00.000000008360,   0.08000,
,,,-00.000000008320,   0.08000,
,,,-00.000000008280,   0.08000,
,,,-00.000000008240,   0.08000,
,,,-00.000000008200,   0.08000,
,,,-00.000000008160,   0.08000,
,,,-00.000000008120,   0.08000,
,,,-00.000000008080,   0.08000,
,,,-00.000000008040,   0.08000,
,,,-00.000000008000,   0.08000,
,,,-00.000000007960,   0.08000,
,,,-00.000000007920,   0.08000,
,,,-00.000000007880,   0.08000,
,,,-00.000000007840,   0.08000,
,,,-00.000000007800,   0.08000,
,,,-00.000000007760,   0.08000,
,,,-00.000000007720,   0.08000,
,,,-00.000000007680,   0.08000,
,,,-00.000000007640,   0.08000,
,,,-00.000000007600,   0.04000,
,,,-00.000000007560,   0.04000,
,,,-00.000000007520,   0.04000,
,,,-00.000000007480,   0.04000,
,,,-00.000000007440,   0.04000,
,,,-00.000000007400,   0.04000,
,,,-00.000000007360,   0.04000,
,,,-00.000000007320,   0.04000,
,,,-00.000000007280,   0.04000,
,,,-00.000000007240,   0.04000,
,,,-00.000000007200,   0.04000,
,,,-00.000000007160,   0.04000,
,,,-00.000000007120,   0.04000,
,,,-00.000000007080,   0.04000,
,,,-00.000000007040,   0.04000,
,,,-00.000000007000,   0.04000,
,,,-00.000000006960,   0.04000,
,,,-00.000000006920,   0.04000,
,,,-00.000000006880,   0.04000,
,,,-00.000000006840,   0.04000,
,,,-00.000000006800,   0.04000,
,,,-00.000000006760,   0.04000,
,,,-00.000000006720,   0.04000,
,,,-00.000000006680,   0.04000,
,,,-00.000000006640,   0.04000,
,,,-00.000000006600,   0.00000,
,,,-00.000000006560,   0.00000,
,,,-00.000000006520,   0.00000,
,,,-00.000000006480,   0.00000,
,,,-00.000000006440,   0.00000,
,,,-00.000000006400,   0.00000,
,,,-00.000000006360,   0.00000,
,,,-00.000000006320,   0.00000,
,,,-00.000000006280,   0.00000,
,,,-00.000000006240,   0.00000,
,,,-00.000000006200,   0.00000,
,,,-00.000000006160,   0.00000,
,,,-00.000000006120,   0.00000,
,,,-00.000000006080,  -0.04000,
,,,-00.000000006040,  -0.04000,
,,,-00.000000006000,  -0.04000,
,,,-00.000000005960,  -0.04000,
,,,-00.000000005920,  -0.04000,
,,,-00.000000005880,  -0.04000,
,,,-00.000000005840,  -0.04000,
,,,-00.000000005800,  -0.04000,
,,,-00.000000005760,   0.00000,
,,,-00.000000005720,   0.00000,
,,,-00.000000005680,   0.00000,
,,,-00.000000005640,   0.00000,
,,,-00.000000005600,   0.00000,
,,,-00.000000005560,   0.00000,
,,,-00.000000005520,   0.00000,
,,,-00.000000005480,   0.00000,
,,,-00.000000005440,   0.04000,
,,,-00.000000005400,   0.04000,
,,,-00.000000005360,   0.04000,
,,,-00.000000005320,   0.04000,
,,,-00.000000005280,   0.04000,
,,,-00.000000005240,   0.04000,
,,,-00.000000005200,   0.08000,
,,,-00.000000005160,   0.08000,
,,,-00.000000005120,   0.08000,
,,,-00.000000005080,   0.08000,
,,,-00.000000005040,   0.08000,
,,,-00.000000005000,   0.08000,
,,,-00.000000004960,   0.08000,
,,,-00.000000004920,   0.08000,
,,,-00.000000004880,   0.08000,
,,,-00.000000004840,   0.08000,
,,,-00.000000004800,   0.08000,
,,,-00.000000004760,   0.08000,
,,,-00.000000004720,   0.08000,
,,,-00.000000004680,   0.08000,
,,,-00.000000004640,   0.08000,
,,,-00.000000004600,   0.04000,
,,,-00.000000004560,   0.04000,
,,,-00.000000004520,   0.04000,
,,,-00.000000004480,   0.04000,
,,,-00.000000004440,   0.04000,
,,,-00.000000004400,   0.04000,
,,,-00.000000004360,   0.04000,
,,,-00.000000004320,   0.04000,
,,,-00.000000004280,   0.04000,
,,,-00.000000004240,   0.04000,
,,,-00.000000004200,   0.04000,
,,,-00.000000004160,   0.04000,
,,,-00.000000004120,   0.04000,
,,,-00.000000004080,   0.04000,
,,,-00.000000004040,   0.04000,
,,,-00.000000004000,   0.00000,
,,,-00.000000003960,   0.00000,
,,,-00.000000003920,   0.00000,
,,,-00.000000003880,   0.00000,
,,,-00.000000003840,   0.04000,
,,,-00.000000003800,   0.04000,
,,,-00.000000003760,   0.04000,
,,,-00.000000003720,   0.04000,
,,,-00.000000003680,   0.04000,
,,,-00.000000003640,   0.04000,
,,,-00.000000003600,   0.04000,
,,,-00.000000003560,   0.04000,
,,,-00.000000003520,   0.04000,
,,,-00.000000003480,   0.04000,
,,,-00.000000003440,   0.04000,
,,,-00.000000003400,   0.04000,
,,,-00.000000003360,   0.04000,
,,,-00.000000003320,   0.04000,
,,,-00.000000003280,   0.04000,
,,,-00.000000003240,   0.08000,
,,,-00.000000003200,   0.08000,
,,,-00.000000003160,   0.08000,
,,,-00.000000003120,   0.08000,
,,,-00.000000003080,   0.08000,
,,,-00.000000003040,   0.08000,
,,,-00.000000003000,   0.08000,
,,,-00.000000002960,   0.08000,
,,,-00.000000002920,   0.08000,
,,,-00.000000002880,   0.08000,
,,,-00.000000002840,   0.08000,
,,,-00.000000002800,   0.08000,
,,,-00.000000002760,   0.08000,
,,,-00.000000002720,   0.08000,
,,,-00.000000002680,   0.08000,
,,,-00.000000002640,   0.08000,
,,,-00.000000002600,   0.08000,
,,,-00.000000002560,   0.08000,
,,,-00.000000002520,   0.08000,
,,,-00.000000002480,   0.08000,
,,,-00.000000002440,   0.08000,
,,,-00.000000002400,   0.08000,
,,,-00.000000002360,   0.08000,
,,,-00.000000002320,   0.08000,
,,,-00.000000002280,   0.08000,
,,,-00.000000002240,   0.08000,
,,,-00.000000002200,   0.08000,
,,,-00.000000002160,   0.08000,
,,,-00.000000002120,   0.08000,
,,,-00.000000002080,   0.08000,
,,,-00.000000002040,   0.08000,
,,,-00.000000002000,   0.08000,
,,,-00.000000001960,   0.08000,
,,,-00.000000001920,   0.08000,
,,,-00.000000001880,   0.08000,
,,,-00.000000001840,   0.08000,
,,,-00.000000001800,   0.08000,
,,,-00.000000001760,   0.08000,
,,,-00.000000001720,   0.12000,
,,,-00.000000001680,   0.12000,
,,,-00.000000001640,   0.12000,
,,,-00.000000001600,   0.12000,
,,,-00.000000001560,   0.12000,
,,,-00.000000001520,   0.12000,
,,,-00.000000001480,   0.12000,
,,,-00.000000001440,   0.12000,
,,,-00.000000001400,   0.16000,
,,,-00.000000001360,   0.16000,
,,,-00.000000001320,   0.16000,
,,,-00.000000001280,   0.16000,
,,,-00.000000001240,   0.16000,
,,,-00.000000001200,   0.20000,
,,,-00.000000001160,   0.20000,
,,,-00.000000001120,   0.20000,
,,,-00.000000001080,   0.20000,
,,,-00.000000001040,   0.24000,
,,,-00.000000001000,   0.24000,
,,,-00.000000000960,   0.24000,
,,,-00.000000000920,   0.24000,
,,,-00.000000000880,   0.28000,
,,,-00.000000000840,   0.28000,
,,,-00.000000000800,   0.28000,
,,,-00.000000000760,   0.32000,
,,,-00.000000000720,   0.32000,
,,,-00.000000000680,   0.36000,
,,,-00.000000000640,   0.36000,
,,,-00.000000000600,   0.40000,
,,,-00.000000000560,   0.44000,
,,,-00.000000000520,   0.44000,
,,,-00.000000000480,   0.48000,
,,,-00.000000000440,   0.52000,
,,,-00.000000000400,   0.56000,
,,,-00.000000000360,   0.56000,
,,,-00.000000000320,   0.60000,
,,,-00.000000000280,   0.64000,
,,,-00.000000000240,   0.68000,
,,,-00.000000000200,   0.72000,
,,,-00.000000000160,   0.72000,
,,,-00.000000000120,   0.76000,
,,,-00.000000000080,   0.80000,
,,,-00.000000000040,   0.84000,
,,,-00.000000000000,   0.88000,
,,,00.000000000040,   0.92000,
,,,00.000000000080,   0.92000,
,,,00.000000000120,   0.96000,
,,,00.000000000160,   1.00000,
,,,00.000000000200,   1.04000,
,,,00.000000000240,   1.08000,
,,,00.000000000280,   1.12000,
,,,00.000000000320,   1.16000,
,,,00.000000000360,   1.20000,
,,,00.000000000400,   1.28000,
,,,00.000000000440,   1.32000,
,,,00.000000000480,   1.36000,
,,,00.000000000520,   1.40000,
,,,00.000000000560,   1.44000,
,,,00.000000000600,   1.52000,
,,,00.000000000640,   1.56000,
,,,00.000000000680,   1.60000,
,,,00.000000000720,   1.64000,
,,,00.000000000760,   1.68000,
,,,00.000000000800,   1.76000,
,,,00.000000000840,   1.80000,
,,,00.000000000880,   1.84000,
,,,00.000000000920,   1.88000,
,,,00.000000000960,   1.92000,
,,,00.000000001000,   1.96000,
,,,00.000000001040,   2.00000,
,,,00.000000001080,   2.04000,
,,,00.000000001120,   2.08000,
,,,00.000000001160,   2.08000,
,,,00.000000001200,   2.12000,
,,,00.000000001240,   2.16000,
,,,00.000000001280,   2.20000,
,,,00.000000001320,   2.24000,
,,,00.000000001360,   2.28000,
,,,00.000000001400,   2.32000,
,,,00.000000001440,   2.36000,
,,,00.000000001480,   2.40000,
,,,00.000000001520,   2.44000,
,,,00.000000001560,   2.48000,
,,,00.000000001600,   2.52000,
,,,00.000000001640,   2.56000,
,,,00.000000001680,   2.60000,
,,,00.000000001720,   2.64000,
,,,00.000000001760,   2.68000,
,,,00.000000001800,   2.72000,
,,,00.000000001840,   2.72000,
,,,00.000000001880,   2.76000,
,,,00.000000001920,   2.80000,
,,,00.000000001960,   2.84000,
,,,00.000000002000,   2.84000,
,,,00.000000002040,   2.88000,
,,,00.000000002080,   2.92000,
,,,00.000000002120,   2.92000,
,,,00.000000002160,   2.96000,
,,,00.000000002200,   2.96000,
,,,00.000000002240,   3.00000,
,,,00.000000002280,   3.00000,
,,,00.000000002320,   3.04000,
,,,00.000000002360,   3.04000,
,,,00.000000002400,   3.08000,
,,,00.000000002440,   3.08000,
,,,00.000000002480,   3.08000,
,,,00.000000002520,   3.12000,
,,,00.000000002560,   3.12000,
,,,00.000000002600,   3.12000,
,,,00.000000002640,   3.16000,
,,,00.000000002680,   3.16000,
,,,00.000000002720,   3.16000,
,,,00.000000002760,   3.16000,
,,,00.000000002800,   3.20000,
,,,00.000000002840,   3.20000,
,,,00.000000002880,   3.20000,
,,,00.000000002920,   3.20000,
,,,00.000000002960,   3.24000,
,,,00.000000003000,   3.24000,
,,,00.000000003040,   3.24000,
,,,00.000000003080,   3.28000,
,,,00.000000003120,   3.28000,
,,,00.000000003160,   3.28000,
,,,00.000000003200,   3.28000,
,,,00.000000003240,   3.28000,
,,,00.000000003280,   3.32000,
,,,00.000000003320,   3.32000,
,,,00.000000003360,   3.32000,
,,,00.000000003400,   3.32000,
,,,00.000000003440,   3.32000,
,,,00.000000003480,   3.32000,
,,,00.000000003520,   3.32000,
,,,00.000000003560,   3.32000,
,,,00.000000003600,   3.36000,
,,,00.000000003640,   3.36000,
,,,00.000000003680,   3.36000,
,,,00.000000003720,   3.36000,
,,,00.000000003760,   3.36000,
,,,00.000000003800,   3.36000,
,,,00.000000003840,   3.36000,
,,,00.000000003880,   3.32000,
,,,00.000000003920,   3.32000,
,,,00.000000003960,   3.32000,
,,,00.000000004000,   3.32000,
,,,00.000000004040,   3.32000,
,,,00.000000004080,   3.32000,
,,,00.000000004120,   3.32000,
,,,00.000000004160,   3.28000,
,,,00.000000004200,   3.28000,
,,,00.000000004240,   3.28000,
,,,00.000000004280,   3.28000,
,,,00.000000004320,   3.28000,
,,,00.000000004360,   3.24000,
,,,00.000000004400,   3.24000,
,,,00.000000004440,   3.24000,
,,,00.000000004480,   3.24000,
,,,00.000000004520,   3.24000,
,,,00.000000004560,   3.24000,
,,,00.000000004600,   3.20000,
,,,00.000000004640,   3.20000,
,,,00.000000004680,   3.20000,
,,,00.000000004720,   3.20000,
,,,00.000000004760,   3.20000,
,,,00.000000004800,   3.20000,
,,,00.000000004840,   3.16000,
,,,00.000000004880,   3.16000,
,,,00.000000004920,   3.16000,
,,,00.000000004960,   3.16000,
,,,00.000000005000,   3.16000,
,,,00.000000005040,   3.16000,
,,,00.000000005080,   3.12000,
,,,00.000000005120,   3.12000,
,,,00.000000005160,   3.12000,
,,,00.000000005200,   3.12000,
,,,00.000000005240,   3.12000,
,,,00.000000005280,   3.12000,
,,,00.000000005320,   3.12000,
,,,00.000000005360,   3.08000,
,,,00.000000005400,   3.08000,
,,,00.000000005440,   3.08000,
,,,00.000000005480,   3.08000,
,,,00.000000005520,   3.08000,
,,,00.000000005560,   3.08000,
,,,00.000000005600,   3.08000,
,,,00.000000005640,   3.08000,
,,,00.000000005680,   3.08000,
,,,00.000000005720,   3.08000,
,,,00.000000005760,   3.08000,
,,,00.000000005800,   3.08000,
,,,00.000000005840,   3.04000,
,,,00.000000005880,   3.04000,
,,,00.000000005920,   3.04000,
,,,00.000000005960,   3.04000,
,,,00.000000006000,   3.04000,
,,,00.000000006040,   3.04000,
,,,00.000000006080,   3.04000,
,,,00.000000006120,   3.00000,
,,,00.000000006160,   3.00000,
,,,00.000000006200,   3.00000,
,,,00.000000006240,   3.00000,
,,,00.000000006280,   3.00000,
,,,00.000000006320,   3.00000,
,,,00.000000006360,   2.96000,
,,,00.000000006400,   2.96000,
,,,00.000000006440,   2.96000,
,,,00.000000006480,   2.96000,
,,,00.000000006520,   2.96000,
,,,00.000000006560,   2.96000,
,,,00.000000006600,   2.92000,
,,,00.000000006640,   2.92000,
,,,00.000000006680,   2.92000,
,,,00.000000006720,   2.92000,
,,,00.000000006760,   2.92000,
,,,00.000000006800,   2.92000,
,,,00.000000006840,   2.92000,
,,,00.000000006880,   2.88000,
,,,00.000000006920,   2.88000,
,,,00.000000006960,   2.88000,
,,,00.000000007000,   2.88000,
,,,00.000000007040,   2.88000,
,,,00.000000007080,   2.88000,
,,,00.000000007120,   2.88000,
,,,00.000000007160,   2.88000,
,,,00.000000007200,   2.88000,
,,,00.000000007240,   2.88000,
,,,00.000000007280,   2.88000,
,,,00.000000007320,   2.88000,
,,,00.000000007360,   2.88000,
,,,00.000000007400,   2.88000,
,,,00.000000007440,   2.88000,
,,,00.000000007480,   2.84000,
,,,00.000000007520,   2.84000,
,,,00.000000007560,   2.84000,
,,,00.000000007600,   2.84000,
,,,00.000000007640,   2.88000,
,,,00.000000007680,   2.88000,
,,,00.000000007720,   2.88000,
,,,00.000000007760,   2.88000,
,,,00.000000007800,   2.88000,
,,,00.000000007840,   2.88000,
,,,00.000000007880,   2.88000,
,,,00.000000007920,   2.88000,
,,,00.000000007960,   2.88000,
,,,00.000000008000,   2.88000,
,,,00.000000008040,   2.88000,
,,,00.000000008080,   2.88000,
,,,00.000000008120,   2.88000,
,,,00.000000008160,   2.88000,
,,,00.000000008200,   2.88000,
,,,00.000000008240,   2.92000,
,,,00.000000008280,   2.92000,
,,,00.000000008320,   2.92000,
,,,00.000000008360,   2.92000,
,,,00.000000008400,   2.92000,
,,,00.000000008440,   2.92000,
,,,00.000000008480,   2.92000,
,,,00.000000008520,   2.92000,
,,,00.000000008560,   2.92000,
,,,00.000000008600,   2.92000,
,,,00.000000008640,   2.92000,
,,,00.000000008680,   2.92000,
,,,00.000000008720,   2.92000,
,,,00.000000008760,   2.92000,
,,,00.000000008800,   2.92000,
,,,00.000000008840,   2.92000,
,,,00.000000008880,   2.92000,
,,,00.000000008920,   2.92000,
,,,00.000000008960,   2.92000,
,,,00.000000009000,   2.92000,
,,,00.000000009040,   2.92000,
,,,00.000000009080,   2.92000,
,,,00.000000009120,   2.92000,
,,,00.000000009160,   2.92000,
,,,00.000000009200,   2.92000,
,,,00.000000009240,   2.92000,
,,,00.000000009280,   2.96000,
,,,00.000000009320,   2.96000,
,,,00.000000009360,   2.96000,
,,,00.000000009400,   2.96000,
,,,00.000000009440,   2.96000,
,,,00.000000009480,   2.96000,
,,,00.000000009520,   2.96000,
,,,00.000000009560,   3.00000,
,,,00.000000009600,   3.00000,
,,,00.000000009640,   3.00000,
,,,00.000000009680,   3.00000,
,,,00.000000009720,   3.00000,
,,,00.000000009760,   3.00000,
,,,00.000000009800,   3.04000,
,,,00.000000009840,   3.04000,
,,,00.000000009880,   3.04000,
,,,00.000000009920,   3.04000,
,,,00.000000009960,   3.04000,
,,,00.000000010000,   3.04000,
,,,00.000000010040,   3.04000,
,,,00.000000010080,   3.04000,
,,,00.000000010120,   3.04000,
,,,00.000000010160,   3.04000,
,,,00.000000010200,   3.04000,
,,,00.000000010240,   3.08000,
,,,00.000000010280,   3.08000,
,,,00.000000010320,   3.08000,
,,,00.000000010360,   3.08000,
,,,00.000000010400,   3.08000,
,,,00.000000010440,   3.08000,
,,,00.000000010480,   3.08000,
,,,00.000000010520,   3.08000,
,,,00.000000010560,   3.08000,
,,,00.000000010600,   3.08000,
,,,00.000000010640,   3.08000,
,,,00.000000010680,   3.08000,
,,,00.000000010720,   3.08000,
,,,00.000000010760,   3.12000,
,,,00.000000010800,   3.12000,
,,,00.000000010840,   3.12000,
,,,00.000000010880,   3.12000,
,,,00.000000010920,   3.12000,
,,,00.000000010960,   3.12000,
,,,00.000000011000,   3.12000,
,,,00.000000011040,   3.12000,
,,,00.000000011080,   3.12000,
,,,00.000000011120,   3.12000,
,,,00.000000011160,   3.12000,
,,,00.000000011200,   3.12000,
,,,00.000000011240,   3.12000,
,,,00.000000011280,   3.16000,
,,,00.000000011320,   3.16000,
,,,00.000000011360,   3.16000,
,,,00.000000011400,   3.16000,
,,,00.000000011440,   3.16000,
,,,00.000000011480,   3.16000,
,,,00.000000011520,   3.16000,
,,,00.000000011560,   3.20000,
,,,00.000000011600,   3.20000,
,,,00.000000011640,   3.20000,
,,,00.000000011680,   3.20000,
,,,00.000000011720,   3.20000,
,,,00.000000011760,   3.20000,
,,,00.000000011800,   3.24000,
,,,00.000000011840,   3.24000,
,,,00.000000011880,   3.24000,
,,,00.000000011920,   3.24000,
,,,00.000000011960,   3.24000,
,,,00.000000012000,   3.24000,
,,,00.000000012040,   3.24000,
,,,00.000000012080,   3.24000,
